<svg width="32" height="32" viewBox="0 0 32 32" fill="none" xmlns="http://www.w3.org/2000/svg">
<circle r="11" transform="matrix(-1 0 0 1 16 16)" stroke="#D1ABEF" stroke-width="2"/>
<mask id="path-2-inside-1_705_847" fill="white">
<path d="M7.80617 29.7427C10.1732 31.154 12.8647 31.93 15.6198 31.9955C18.3749 32.061 21.1002 31.4137 23.5317 30.1164C25.9631 28.8192 28.0183 26.9158 29.498 24.5909C30.9777 22.266 31.8318 19.5983 31.9776 16.8463C32.1234 14.0942 31.5558 11.3512 30.33 8.88298C29.1041 6.41475 27.2615 4.305 24.9807 2.75814C22.6999 1.21128 20.0582 0.279764 17.3116 0.0538501C14.565 -0.172064 11.8066 0.315284 9.30369 1.46867L10.0727 3.1374C12.2882 2.11647 14.7298 1.68508 17.161 1.88505C19.5922 2.08502 21.9305 2.90957 23.9494 4.27879C25.9683 5.64801 27.5993 7.51549 28.6844 9.70028C29.7694 11.8851 30.2718 14.3131 30.1428 16.7491C30.0138 19.1851 29.2577 21.5464 27.9479 23.6044C26.6381 25.6623 24.819 27.3471 22.6668 28.4954C20.5145 29.6437 18.1022 30.2166 15.6635 30.1586C13.2248 30.1007 10.8424 29.4138 8.74712 28.1645L7.80617 29.7427Z"/>
</mask>
<path d="M7.80617 29.7427C10.1732 31.154 12.8647 31.93 15.6198 31.9955C18.3749 32.061 21.1002 31.4137 23.5317 30.1164C25.9631 28.8192 28.0183 26.9158 29.498 24.5909C30.9777 22.266 31.8318 19.5983 31.9776 16.8463C32.1234 14.0942 31.5558 11.3512 30.33 8.88298C29.1041 6.41475 27.2615 4.305 24.9807 2.75814C22.6999 1.21128 20.0582 0.279764 17.3116 0.0538501C14.565 -0.172064 11.8066 0.315284 9.30369 1.46867L10.0727 3.1374C12.2882 2.11647 14.7298 1.68508 17.161 1.88505C19.5922 2.08502 21.9305 2.90957 23.9494 4.27879C25.9683 5.64801 27.5993 7.51549 28.6844 9.70028C29.7694 11.8851 30.2718 14.3131 30.1428 16.7491C30.0138 19.1851 29.2577 21.5464 27.9479 23.6044C26.6381 25.6623 24.819 27.3471 22.6668 28.4954C20.5145 29.6437 18.1022 30.2166 15.6635 30.1586C13.2248 30.1007 10.8424 29.4138 8.74712 28.1645L7.80617 29.7427Z" stroke="#D1ABEF" stroke-width="8" stroke-linejoin="round" mask="url(#path-2-inside-1_705_847)"/>
</svg>
