<svg width="24" height="25" viewBox="0 0 24 25" fill="none" xmlns="http://www.w3.org/2000/svg">
<path d="M19.1597 13.3132H15.371C13.9596 13.3132 12.8125 14.4604 12.8125 15.8717V19.6604C12.8125 21.0717 13.9597 22.2189 15.371 22.2189H19.1597C20.571 22.2189 21.7182 21.0717 21.7182 19.6604V15.8717C21.7182 14.4604 20.571 13.3132 19.1597 13.3132ZM20.2087 19.6604C20.2087 20.234 19.7333 20.7095 19.1597 20.7095H15.371C14.7974 20.7095 14.3219 20.234 14.3219 19.6604V15.8717C14.3219 15.2906 14.7974 14.8227 15.371 14.8227H19.1597C19.7333 14.8227 20.2087 15.2906 20.2087 15.8717V19.6604Z" fill="white"/>
<path d="M19.1597 2.21875H15.371C13.9596 2.21875 12.8125 3.36592 12.8125 4.77724V8.56592C12.8125 9.97732 13.9597 11.1244 15.371 11.1244H19.1597C20.571 11.1244 21.7182 9.97724 21.7182 8.56592V4.77724C21.7182 3.36592 20.571 2.21875 19.1597 2.21875ZM20.2087 8.56592C20.2087 9.14705 19.7333 9.61498 19.1597 9.61498H15.371C14.7974 9.61498 14.3219 9.14705 14.3219 8.56592V4.77724C14.3219 4.20366 14.7974 3.72818 15.371 3.72818H19.1597C19.7333 3.72818 20.2087 4.20366 20.2087 4.77724V8.56592Z" fill="white"/>
<path d="M8.06592 13.3132H4.27724C2.86592 13.3132 1.71875 14.4604 1.71875 15.8717V19.6604C1.71875 21.0717 2.86592 22.2189 4.27724 22.2189H8.06592C9.47732 22.2189 10.6244 21.0717 10.6244 19.6604V15.8717C10.6244 14.4604 9.47724 13.3132 8.06592 13.3132ZM9.11498 19.6604C9.11498 20.234 8.64705 20.7095 8.06592 20.7095H4.27724C3.70366 20.7095 3.22818 20.234 3.22818 19.6604V15.8717C3.22818 15.2906 3.70366 14.8227 4.27724 14.8227H8.06592C8.64705 14.8227 9.11498 15.2906 9.11498 15.8717V19.6604Z" fill="white"/>
<path d="M8.06592 2.21875H4.27724C2.86592 2.21875 1.71875 3.36592 1.71875 4.77724V8.56592C1.71875 9.97732 2.86592 11.1244 4.27724 11.1244H8.06592C9.47732 11.1244 10.6244 9.97724 10.6244 8.56592V4.77724C10.6244 3.36592 9.47724 2.21875 8.06592 2.21875ZM9.11498 8.56592C9.11498 9.14705 8.64705 9.61498 8.06592 9.61498H4.27724C3.70366 9.61498 3.22818 9.14705 3.22818 8.56592V4.77724C3.22818 4.20366 3.70366 3.72818 4.27724 3.72818H8.06592C8.64705 3.72818 9.11498 4.20366 9.11498 4.77724V8.56592Z" fill="white"/>
</svg>
